-------------------------------------------------------------------------------
Test set: day10.AppTest
-------------------------------------------------------------------------------
Tests run: 1, Failures: 0, Errors: 0, Skipped: 0, Time elapsed: 0.025 s - in day10.AppTest
